﻿<?xml version="1.0" encoding="UTF-8" standalone="no"?>
<svg xmlns:xlink="http://www.w3.org/1999/xlink" xmlns:dc="http://purl.org/dc/elements/1.1/"
  xmlns:cc="http://creativecommons.org/ns#" xmlns:rdf="http://www.w3.org/1999/02/22-rdf-syntax-ns#"
  xmlns:svg="http://www.w3.org/2000/svg" xmlns="http://www.w3.org/2000/svg"
  xmlns:sodipodi="http://sodipodi.sourceforge.net/DTD/sodipodi-0.dtd"
  xmlns:inkscape="http://www.inkscape.org/namespaces/inkscape" width="{*width*}mm" height="{*height*}mm"
  viewBox="0 0 {*width*} {*height*}" version="1.1">
  <defs />

  <style>
      {*styles*}
      {*fonts*}
  </style>
  <metadata>
    <rdf:RDF>
      <cc:Work>
        <dc:format>image/svg+xml</dc:format>
        <dc:type rdf:resource="http://purl.org/dc/dcmitype/StillImage" />
        <dc:title></dc:title>
      </cc:Work>
    </rdf:RDF>
  </metadata>
  <g id="main">
    <text>
      <tspan x="{*right*}" y="12" class="title">{*title*}</tspan>
    </text>
    {*main*}
    <image y="{*logoY*}" x="-10" class="logo" xlink:href="{*logo*}" width="90" />
  </g>
</svg>